{
  "1": {
    "name": "rock",
    "accept": [
      "r",
      "1",
      "rock"
    ],
    "kills": 3,
    "dies": 2
  },
  "2": {
    "name": "paper",
    "accept": [
      "p",
      "2",
      "paper"
    ],
    "kills": 1,
    "dies": 3
  },
  "3": {
    "name": "scissors",
    "accept": [
      "s",
      "3",
      "scissors"
    ],
    "kills": 2,
    "dies": 1
  }
}